0,0,0,0,0,0,0,0,0,0,160.84589053117196,0,0,0,0,0,0,0,0,0,0,0,0,0,0,35.59508109599992,0,0,0,0,0,0,0,58.24962097063816,0,0,0,0,0,0,0,0,0,0,0,0,0,0,0,0,12.79850810956181,0,0,0,0,0,0,0,0,0,0,0,0,0,0,0,21.667770280572704,0,0,0,0,0,0,0,0,5.311155454950571,0,0,0,0,0,0,0,0,0,0,0,0,0,0,0,0,0,0,0,0,0,0,0,7.91863022418516,0,0,0,0,0,0,0,0,0,0,0,0,0,0,0,0,0,0,0,0,0,0,0,0,0,0,0,0,0,0,0,0,3.4956710576965397,0,0,0,0,0,0,0,0,0,0,0,0,0,0,0,0,0,0,0,0,0,0,0,0,0,0,0,0,0,0,0,0,0,0,0,0,0,0,0,0,0,0,0,0,0,0,0,0,0,0,0,0,0,0,0,0,0,0,0,0,0,0,0,0,0,0,0,0,0,0,0,0,0,0,0,0,0,0,0,0,0,0,0,0,0,0,0,0,0,0,0,0,0,0,0,0,0,0,0,0,0,0,0,0,0,0,0,0,0,0,0,0,0,0,0,0,0,0,0,0,0,0,0
0,0,0,0,0,0,0,0,0,0,167.63373487453651,0,0,5.610433168915588,0,0,0,0,0,16.843016276952977,0,0,0,26.41808941972069,0,0,0,44.989306300540434,0,0,0,0,0,0,0,0,0,0,7.531222058252533,0,0,0,0,0,0,0,10.864910271786622,5.483806389110929,0,0,0,0,0,0,16.96599974253795,0,0,3.0265423537909006,0,0,0,0,0,0,0,0,0,0,0,0,4.213552606313544,0,0,0,0,0,0,0,0,0,0,5.168628879660657,0,0,0,0,0,0,0,0,0,0,0,0,0,0,0,0,0,0,0,0,0,0,0,0,0,0,0,0,0,0,0,0,0,0,0,0,0,0,0,0,0,0,0,0,0,0,0,0,0,0,0,0,0,0,0,0,0,0,0,0,0,0,0,0,0,0,0,0,0,0,0,0,0,0,0,0,0,0,0,0,0,0,0,0,0,0,0,0,0,0,0,0,0,0,0,0,0,0,0,0,0,0,0,0,0,0,0,0,0,0,0,0,0,0,0,0,0,0,0,0,0,0,0,0,0,0,0,0,0,0,0,0,0,0,0,0,0,0,0,0,0,0,0,0,0,0,0,0,0,0,0,0,0,0,0,0,0,0,0,0,0,0,0,0,0,0,0,0,0,0,0,0,0,0
0,0,0,0,0,0,0,0,0,0,0,0,0,0,143.9540344661999,0,0,0,0,14.701406092484035,0,0,0,0,0,0,0,0,1.9313326499504206,0,0,0,0,52.34872371986684,0,0,0,0,5.276464570424693,0,0,0,0,0,0,0,0,0,0,0,0,0,0,0,0,0,0,0,0,0,0,0,0,0,0,0,18.339083320202104,0,0,0,0,0,0,0,0,0,0,0,0,0,0,0,0,0,0,0,0,0,0,0,0,0,0,0,0,0,0,0,0,7.355266672480136,0,0,0,0,0,0,0,0,0,0,0,0,0,0,0,0,0,0,0,0,0,0,0,0,0,0,0,0,0,0,0,0,2.10434708832483,0,0,0,0,0,0,0,0,0,0,0,0,0,0,0,0,0,0,0,0,0,0,0,0,0,0,0,0,0,0,0,0,0,0,0,0,0,0,0,0,0,0,0,0,0,0,0,0,0,0,0,0,0,0,0,0,0,0,0,0,0,0,0,0,0,0,0,0,0,0,0,0,0,0,0,0,0,0,0,0,0,0,0,0,0,0,0,0,0,0,0,0,0,0,0,0,0,0,0,0,0,0,0,0,0,0,0,0,0,0,0,0,0,0,0,0,0,0,0,0,0,0,0
0,0,0,0,0,0,0,0,0,0,0,0,0,5.096702405629603,201.9945880568113,0,0,0,19.895684979123537,0,0,0,0,0,0,0,0,2.928510006690616,0,0,0,0,0,0,0,0,7.636995688770891,0,0,0,0,0,0,0,0,0,0,0,0,0,0,0,0,0,2.3463850253933933,0,0,0,0,0,0,0,0,0,0,0,0,0,0,0,0,0,0,0,0,0,0,0,0,0,0,0,0,0,0,0,0,0,0,0,0,0,0,0,0,0,0,0,0,0,0,0,0,0,0,0,0,0,0,0,0,0,0,0,0,0,0,0,0,0,0,0,0,0,0,0,0,0,0,0,0,0,0,0,0,0,0,0,0,0,0,0,0,0,0,0,0,0,0,0,0,0,0,0,0,0,0,0,0,0,0,0,0,0,0,0,0,0,0,0,0,0,0,0,0,0,0,0,0,0,0,0,0,0,0,0,0,0,0,0,0,0,0,0,0,0,0,0,0,0,0,0,0,0,0,0,0,0,0,0,0,0,0,0,0,0,0,0,0,0,0,0,0,0,0,0,0,0,0,0,0,0,0,0,0,0,0,0,0,0,0,0,0,0,0,0,0,0,0,0,0,0,0,0,0,0
0,0,0,0,0,0,0,0,0,0,0,0,0,0,0,0,0,0,0,0,0,0,0,145.82963246334268,0,0,0,0,0,0,0,0,0,0,0,54.19519240154278,0,0,0,0,0,0,37.44505708645634,0,0,0,9.902479455127171,0,0,0,0,0,0,0,0,0,0,0,0,0,0,0,0,0,0,0,0,0,0,3.359650987054041,20.24270439546986,0,0,0,0,0,0,0,0,0,0,0,0,15.94028320745563,8.226766428851938,0,0,0,0,0,0,0,0,0,0,0,0,0,0,0,0,0,0,0,0,7.558445461762853,0,0,0,0,0,0,0,0,0,0,0,0,0,0,0,0,0,0,0,5.548009277168814,0,0,0,0,0,0,0,0,0,0,0,0,0,0,0,0,0,0,0,0,0,0,0,0,0,0,0,0,0,0,0,0,0,0,0,0,0,0,0,0,0,0,0,0,0,0,0,0,0,0,0,0,0,0,0,0,0,0,0,0,0,0,0,0,0,0,0,0,0,0,0,0,0,0,0,0,0,0,0,0,0,0,0,0,0,0,0,0,0,0,0,0,0,0,0,0,0,0,0,0,0,0,0,0,0,0,0,0,0,0,0,0,0,0,0,0,0,0,0,0,0,0,0,0,0,0,0,0,0,0
0,0,0,0,0,0,0,0,0,0,0,0,0,0,0,0,0,0,0,0,0,0,0,0,0,0,125.92292572292759,0,0,33.79696478957125,0,0,0,0,0,0,0,0,44.41750394634333,0,0,0,0,0,0,27.57363692534013,0,0,0,0,0,0,11.19253834014948,0,0,0,0,0,14.225118342128004,7.608250998995435,0,0,0,0,0,0,0,0,0,0,0,0,0,0,0,0,16.05891715645371,0,4.216411905120242,0,0,0,0,0,0,0,0,0,3.9821188365879814,0,9.701935083289376,0,0,0,0,0,0,0,0,0,0,0,0,0,0,0,0,0,0,0,0,0,0,0,5.68731574568774,0,0,0,0,0,0,0,0,0,0,0,0,0,0,0,0,0,0,0,0,4.069487474973103,0,0,0,0,0,0,0,0,0,0,0,0,0,0,0,0,2.4996641791322634,0,0,0,0,0,0,0,0,0,0,0,0,0,0,0,0,0,0,0,0,0,0,0,0,0,0,0,2.1869900775886424,0,0,0,0,0,0,0,0,0,0,0,0,0,0,0,0,0,0,0,0,0,0,0,0,0,0,0,0,0,0,0,0,0,0,0,0,0,0,0,0,0,0,0,0,0,0,0,0,0,0,0,0,0,0,0,0,0,0,0,0,0,0,0,0,0,0,0,0,0,0,0,0,0,0,0
0,0,0,0,0,0,0,0,0,0,0,0,0,0,0,0,0,0,0,0,0,0,0,0,0,0,0,0,0,153.61938715333972,0,0,0,0,56.28247544262098,56.44140266705345,28.912314326670913,0,0,0,49.59638512207154,0,0,0,0,0,0,0,0,0,0,0,0,0,0,0,0,0,17.1743375756598,0,0,0,0,0,0,0,0,0,20.352355822273793,0,0,21.353048124070177,0,0,0,0,0,0,0,0,18.87397270211757,0,0,0,0,0,0,6.709057044694499,0,0,0,0,0,0,0,0,0,0,0,0,0,0,7.537903542681212,0,0,0,7.60215236926166,4.377462507629323,0,0,0,0,0,0,0,0,0,0,0,0,6.672069319275002,0,0,0,0,0,0,0,0,0,0,0,0,0,0,0,0,0,0,0,0,0,0,0,0,0,0,0,0,0,0,0,0,0,0,0,0,0,0,0,0,0,0,0,0,0,0,0,0,0,0,0,0,0,0,0,0,0,0,0,0,0,0,0,0,0,0,0,0,0,0,0,0,0,0,0,0,0,0,0,0,0,0,0,0,0,0,0,0,0,0,0,0,0,0,0,0,0,0,0,0,0,0,0,0,0,0,0,0,0,0,0,0,0,0,0,0,0,0,0,0,0,0,0,0,0,0,0,0,0,0,0,0,0,0,0
0,0,0,0,0,0,0,0,0,0,0,0,0,0,0,0,0,0,227.60069756692383,0,0,0,0,0,0,0,0,0,0,0,0,0,79.61678350494773,0,0,0,7.3500176320165895,0,0,0,0,0,0,0,0,0,0,0,0,0,0,0,0,0,0,0,0,0,0,0,0,0,0,0,29.47509755097152,0,0,0,0,0,0,0,0,0,0,0,0,0,0,0,0,0,0,0,0,0,0,0,0,0,0,0,0,0,0,0,11.06213018143594,0,0,0,0,0,0,0,0,0,0,0,0,0,0,0,0,0,0,0,0,0,0,0,0,0,0,0,0,0,0,0,4.269183486453436,0,0,0,0,0,0,0,0,0,0,0,0,0,0,0,0,0,0,0,0,0,0,0,0,0,0,0,0,0,0,0,0,0,0,0,0,0,0,0,0,0,0,0,0,0,0,0,0,0,0,0,0,0,0,0,0,0,0,0,0,0,0,0,0,0,0,0,0,0,0,0,0,0,0,0,0,0,0,0,0,0,0,0,0,0,0,0,0,0,0,0,0,0,0,0,0,0,0,0,0,0,0,0,0,0,0,0,0,0,0,0,0,0,0,0,0,0,0,0,0,0,0,0,0,0,0,0
0,0,0,0,0,0,0,0,0,0,0,0,0,0,0,0,0,0,0,0,0,0,0,0,0,0,0,0,0,0,0,0,0,0,0,193.64529330430838,0,69.2923761616422,35.711093573580555,0,0,0,55.85158798729244,0,0,0,0,0,0,0,0,0,0,0,0,0,0,0,0,0,0,0,0,0,0,0,0,0,0,0,25.891596664246645,0,0,0,0,26.292394651215126,0,0,0,0,0,0,0,0,20.14094832979779,0,0,0,0,0,0,0,0,0,0,0,0,0,0,0,0,0,0,0,0,9.262418559204324,0,0,0,0,0,0,9.060699175118241,5.141178300412789,0,0,0,0,0,0,0,0,0,0,0,0,7.567302435782972,0,0,0,0,0,0,0,0,0,0,0,0,0,0,0,0,0,0,0,0,0,0,0,0,0,0,0,0,0,0,0,0,0,0,0,0,0,0,0,0,0,0,0,0,0,0,0,0,0,0,0,0,0,0,0,0,0,0,0,0,0,0,0,0,0,0,0,0,0,0,0,0,0,0,0,0,0,0,0,0,0,0,0,0,0,0,0,0,0,0,0,0,0,0,0,0,0,0,0,0,0,0,0,0,0,0,0,0,0,0,0,0,0,0,0,0,0,0,0,0,0,0,0,0,0,0,0,0,0
0,0,0,0,0,0,0,0,0,0,166.04089524632894,0,0,0,0,0,0,0,0,0,0,0,0,0,0,37.10350356043675,0,0,0,0,0,0,0,59.86558765496392,0,0,0,0,0,0,0,0,0,0,0,0,0,0,0,0,14.433549097112433,0,0,0,0,0,0,0,0,0,0,0,0,0,0,0,21.630920074009246,0,0,0,0,0,0,0,0,4.609657140643202,0,0,0,0,0,0,0,0,0,0,0,0,0,0,0,0,0,0,0,0,0,0,0,8.59280161918662,0,0,0,0,0,0,0,0,0,0,0,0,0,0,0,0,0,0,0,0,0,0,0,0,0,0,0,0,0,0,0,0,2.97635733849701,0,0,0,0,0,0,0,0,0,0,0,0,0,0,0,0,0,0,0,0,0,0,0,0,0,0,0,0,0,0,0,0,0,0,0,0,0,0,0,0,0,0,0,0,0,0,0,0,0,0,0,0,0,0,0,0,0,0,0,0,0,0,0,0,0,0,0,0,0,0,0,0,0,0,0,0,0,0,0,0,0,0,0,0,0,0,0,0,0,0,0,0,0,0,0,0,0,0,0,0,0,0,0,0,0,0,0,0,0,0,0,0,0,0,0,0,0,0,0,0,0,0,0
0,0,0,0,0,0,0,0,0,0,170.06971959782194,0,0,5.91717539210772,0,0,0,0,0,16.87918094083369,0,0,0,26.607390527234145,0,0,0,44.47913540672839,0,0,0,0,0,0,0,0,0,0,6.882766032766478,0,0,0,0,0,0,0,12.00331720774087,6.728747831522666,0,0,0,0,0,0,16.13487424592954,0,0,2.6368401060175257,0,0,0,0,0,0,0,0,0,0,0,0,4.08847609713818,0,0,0,0,0,0,0,0,0,0,6.860040712218489,0,0,0,0,0,0,0,0,0,0,0,0,0,0,0,0,0,0,0,0,0,0,0,0,0,0,0,0,0,0,0,0,0,0,0,0,0,0,0,0,0,0,0,0,0,0,0,0,0,0,0,0,0,0,0,0,0,0,0,0,0,0,0,0,0,0,0,0,0,0,0,0,0,0,0,0,0,0,0,0,0,0,0,0,0,0,0,0,0,0,0,0,0,0,0,0,0,0,0,0,0,0,0,0,0,0,0,0,0,0,0,0,0,0,0,0,0,0,0,0,0,0,0,0,0,0,0,0,0,0,0,0,0,0,0,0,0,0,0,0,0,0,0,0,0,0,0,0,0,0,0,0,0,0,0,0,0,0,0,0,0,0,0,0,0,0,0,0,0,0,0,0,0,0
0,0,0,0,0,0,0,0,0,0,0,0,0,0,142.3998053160698,0,0,0,0,14.851133094385707,0,0,0,0,0,0,0,0,0,0,0,0,0,51.22778201560374,0,0,0,0,5.059815353405055,0,0,0,0,0,0,0,0,0,0,0,0,0,0,0,0,0,0,2.8099412833253226,0,0,0,0,0,0,0,0,18.633899479195907,0,0,0,0,0,0,0,0,0,0,0,0,0,0,0,0,0,0,0,0,0,0,0,0,0,0,0,0,0,0,0,0,6.951890076303829,0,0,0,0,0,0,0,0,0,0,0,0,0,0,0,0,0,0,0,0,0,0,0,0,0,0,0,0,0,0,0,0,2.2269862954294086,0,0,0,0,0,0,0,0,0,0,0,0,0,0,0,0,0,0,0,0,0,0,0,0,0,0,0,0,0,0,0,0,0,0,0,0,0,0,0,0,0,0,0,0,0,0,0,0,0,0,0,0,0,0,0,0,0,0,0,0,0,0,0,0,0,0,0,0,0,0,0,0,0,0,0,0,0,0,0,0,0,0,0,0,0,0,0,0,0,0,0,0,0,0,0,0,0,0,0,0,0,0,0,0,0,0,0,0,0,0,0,0,0,0,0,0,0,0,0,0,0,0,0
0,0,0,0,0,0,0,0,0,0,0,0,0,5.118861079456471,211.4845799661444,0,0,0,21.696413051706177,0,0,0,0,0,0,0,0,2.9323227505922853,0,0,0,0,0,0,0,0,7.941612318174043,0,0,0,0,0,0,0,0,0,0,0,0,0,0,0,0,0,3.286419170186376,0,0,0,0,0,0,0,0,0,0,0,0,0,0,0,0,0,0,0,0,0,0,0,0,0,0,0,0,0,0,0,0,0,0,0,0,0,0,0,0,0,0,0,0,0,0,0,0,0,0,0,0,0,0,0,0,0,0,0,0,0,0,0,0,0,0,0,0,0,0,0,0,0,0,0,0,0,0,0,0,0,0,0,0,0,0,0,0,0,0,0,0,0,0,0,0,0,0,0,0,0,0,0,0,0,0,0,0,0,0,0,0,0,0,0,0,0,0,0,0,0,0,0,0,0,0,0,0,0,0,0,0,0,0,0,0,0,0,0,0,0,0,0,0,0,0,0,2.1950906423907535,0,0,0,0,0,0,0,0,0,0,0,0,0,0,0,0,0,0,0,0,0,0,0,0,0,0,0,0,0,0,0,0,0,0,0,0,0,0,0,0,0,0,0,0,0,0,0,0,0,0,0,0,0
0,0,0,0,0,0,0,0,0,0,0,0,0,0,0,0,0,0,0,0,0,0,0,146.31997777419892,0,0,0,0,0,0,0,0,0,0,0,54.40119658955457,0,0,0,0,0,0,37.25315670650996,0,0,0,9.183955835277654,0,0,0,0,0,0,0,0,0,0,0,0,0,0,0,0,0,0,0,0,0,0,3.7037734633854944,19.128610898170106,0,0,0,0,0,0,0,0,0,0,0,0,15.500024240375705,8.03686572278814,0,0,0,0,0,0,0,0,0,0,0,0,0,0,0,0,0,0,0,0,6.771276977436797,0,0,0,0,0,0,0,0,0,0,0,0,0,0,0,0,0,0,0,4.441825331841115,0,0,0,0,0,0,0,0,0,0,0,0,0,0,0,0,0,0,0,0,0,0,0,0,0,0,0,0,0,0,0,0,0,0,0,0,0,0,0,0,0,2.5060768096797865,0,0,0,0,0,0,0,0,0,0,0,0,0,0,0,0,0,0,0,0,0,0,0,0,0,0,0,0,0,0,0,0,0,0,0,0,0,0,0,0,0,0,0,0,0,0,0,0,0,0,0,0,0,0,0,0,0,0,0,0,0,0,0,0,0,0,0,0,0,0,0,0,0,0,0,0,0,0,0,0,0,0,0,0,0,0,0,0
0,0,0,0,0,0,0,0,0,0,0,0,0,0,0,0,0,0,0,0,0,0,0,0,0,0,129.29588018660525,0,0,34.945347196581714,0,0,0,0,0,0,0,0,45.33141596386739,0,0,0,0,0,0,28.69565631355751,0,0,0,0,0,0,11.647926580058353,0,0,0,0,0,14.712388018391229,7.318612441272025,0,0,0,0,0,0,0,0,0,0,0,0,0,0,0,0,16.766078389407,0,4.691342694623069,0,0,0,0,0,0,0,0,0,5.008808212109004,0,10.555066687914696,0,0,0,0,0,0,0,0,0,0,0,0,0,0,0,0,0,0,0,0,0,0,0,6.147181746805828,0,0,0,0,0,0,0,0,0,0,0,0,0,0,0,0,0,0,0,0,3.554043829824349,0,0,0,0,0,0,0,0,0,0,0,0,0,0,0,0,2.2080158017591014,0,0,0,0,0,0,0,0,0,0,0,0,0,0,0,0,0,0,0,0,0,0,0,0,0,0,0,0,0,0,0,0,0,0,0,0,0,0,0,0,0,0,0,0,0,0,0,0,0,0,0,0,0,0,0,0,0,0,0,0,0,0,0,0,0,0,0,0,0,0,0,0,0,0,0,0,0,0,0,0,0,0,0,0,0,0,0,0,0,0,0,0,0,0,0,0,0,0,0,0,0,0,0
0,0,0,0,0,0,0,0,0,0,0,0,0,0,0,0,0,0,0,0,0,0,0,0,0,0,0,0,0,148.4902566469926,0,0,0,0,54.515646882434964,54.938200061236365,28.242023031409275,0,0,0,48.22676009518811,0,0,0,0,0,0,0,0,0,0,0,0,0,0,0,0,0,16.404834288139416,0,0,0,0,0,0,0,0,0,20.221081507772134,0,0,20.532912603458257,0,0,0,0,0,0,0,0,18.001608513662447,0,0,0,0,0,0,6.1705553957281785,0,0,0,0,0,0,0,0,0,0,0,0,0,0,7.393756739996768,0,0,0,7.0263368993306985,3.758185112591876,0,0,0,0,0,0,0,0,0,0,0,0,6.976819879524309,0,0,0,0,0,0,0,0,0,0,0,0,0,0,0,0,0,0,0,0,0,0,0,0,0,0,0,0,0,0,0,0,0,0,0,0,0,0,0,0,0,0,0,0,0,0,0,0,0,0,0,0,0,0,0,0,0,0,0,0,0,0,0,0,0,0,0,0,0,0,0,0,0,0,0,0,0,0,0,0,0,0,0,0,0,0,0,0,0,0,0,0,0,0,0,0,0,0,0,0,0,0,0,0,0,0,0,0,0,0,0,0,0,0,0,0,0,0,0,0,0,0,0,0,0,0,0,0,0,0,0,0,0,0,0
0,0,0,0,0,0,0,0,0,0,0,0,0,0,0,0,0,0,242.1147401146148,0,0,0,0,0,0,0,0,0,0,0,0,0,84.92245414105555,0,0,0,7.681342395299465,0,0,0,0,0,0,0,0,0,0,0,0,0,0,0,0,0,2.9978207533870833,0,0,0,0,0,0,0,0,0,30.812664064622926,0,0,0,0,0,0,0,0,0,0,0,0,0,0,0,0,0,0,0,0,0,0,0,0,0,0,0,0,0,0,0,11.789655354657363,0,0,0,0,0,0,0,0,0,0,0,0,0,0,0,0,0,0,0,0,0,0,0,0,0,0,0,0,0,0,0,4.559623235341364,0,0,0,0,0,0,0,0,0,0,0,0,0,0,0,0,0,0,0,0,0,0,0,0,0,0,0,0,0,0,0,0,0,0,0,0,0,0,0,0,0,0,0,0,0,0,0,0,0,0,0,0,0,0,0,0,0,0,0,0,0,0,0,0,0,0,0,0,0,0,0,0,0,0,0,0,0,0,0,0,0,0,0,0,0,0,0,0,0,0,0,0,0,0,0,0,0,0,0,0,0,0,0,0,0,0,0,0,0,0,0,0,0,0,0,0,0,0,0,0,0,0,0,0,0,0,0
0,0,0,0,0,0,0,0,0,0,0,0,0,0,0,0,0,0,0,0,0,0,0,0,0,0,0,0,0,0,0,0,0,0,0,197.2846249753584,0,69.58746102645453,35.38709000677214,0,0,0,56.22212443318197,0,0,0,0,0,0,0,0,0,0,0,0,0,0,0,0,0,0,0,0,0,0,0,0,0,0,0,26.99682529137586,0,0,0,0,25.746447224235318,0,0,0,0,0,0,0,0,20.78812592780257,0,0,0,0,0,0,0,0,0,0,0,0,0,0,0,0,0,0,0,0,9.45229555719013,0,0,0,0,0,0,9.503339720835656,4.8085354760277905,0,0,0,0,0,0,0,0,0,0,0,0,7.288651112626901,0,0,0,0,0,0,0,0,0,0,0,0,0,0,0,0,0,0,0,0,0,0,0,0,0,0,0,0,0,0,0,0,0,0,0,0,0,0,0,0,0,0,0,0,0,0,0,0,0,0,0,0,0,0,0,0,0,0,0,0,0,0,0,0,0,0,0,0,0,0,0,0,0,0,0,0,0,0,0,0,0,0,0,0,0,0,0,0,0,0,0,0,0,0,0,0,0,0,0,0,0,0,0,0,0,0,0,0,0,0,0,0,0,0,0,0,0,0,0,0,0,0,0,0,0,0,0,0,0
0,0,0,0,0,0,0,0,0,0,163.80875705205023,0,0,0,0,0,0,0,0,0,0,0,0,0,0,36.2395486541141,0,0,0,0,0,0,0,59.70205248553948,0,0,0,0,0,0,0,0,0,0,0,0,0,0,0,0,13.911718357088414,0,0,0,0,0,0,0,0,0,0,0,0,0,0,0,21.452614189931026,0,0,0,0,0,0,0,0,5.277321073289016,0,0,0,0,0,0,0,0,0,0,0,0,0,0,0,0,0,0,0,0,0,0,0,7.893620885079722,0,0,0,0,0,0,0,0,0,0,0,0,0,0,0,0,0,0,0,0,0,0,0,0,0,0,0,0,0,0,0,0,3.2962285163916576,0,0,0,0,0,0,0,0,0,0,0,0,0,0,0,0,0,0,0,0,0,0,0,0,0,0,0,0,0,0,0,0,0,0,0,0,0,0,0,0,0,0,0,0,0,0,0,0,0,0,0,0,0,0,0,0,0,0,0,0,0,0,0,0,0,0,0,0,0,0,0,0,0,0,0,0,0,0,0,0,0,0,0,0,0,0,0,0,0,0,0,0,0,0,0,0,0,0,0,0,0,0,0,0,0,0,0,0,0,0,0,0,0,0,0,0,0,0,0,0,0,0,0
0,0,0,0,0,0,0,0,0,0,168.0108372073185,0,0,5.379000662278476,0,0,0,0,0,17.27314679325741,0,0,0,26.62273259291316,0,0,2.3059471334819905,44.8429778051906,0,0,0,0,0,0,0,0,0,0,6.7233719434182175,0,0,0,0,0,0,0,12.17351925176634,6.9869205228498075,0,0,0,0,0,0,16.47339468623164,0,0,0,0,0,0,0,0,0,0,0,0,0,0,0,3.4755514035563584,0,0,0,0,0,0,0,0,0,0,5.405652767164243,0,0,0,0,0,0,0,0,0,0,0,0,0,0,0,0,0,0,0,0,0,0,0,0,0,0,0,0,0,0,0,0,0,0,0,0,0,0,0,0,0,0,0,0,0,0,0,0,0,0,0,0,0,0,0,0,0,0,0,0,0,0,0,0,0,0,0,0,0,0,0,0,0,0,0,0,0,0,0,0,0,0,0,0,0,0,0,0,0,0,0,0,0,0,0,0,0,0,0,0,0,0,0,0,0,0,0,0,0,0,0,0,0,0,0,0,0,0,0,0,0,0,0,0,0,0,0,0,0,0,0,0,0,0,0,0,0,0,0,0,0,0,0,0,0,0,0,0,0,0,0,0,0,0,0,0,0,0,0,0,0,0,0,0,0,0,0,0,0,0,0,0,0,0
0,0,0,0,0,0,0,0,0,0,0,0,0,0,144.1942226815361,0,0,0,0,14.360387173104883,0,0,0,0,0,0,0,0,0,0,0,0,0,52.418283321320985,0,0,0,0,5.631860674161634,0,0,0,0,0,0,0,0,0,0,0,0,0,0,0,0,0,0,2.2815427833933724,0,0,0,0,0,0,0,0,19.06747532061432,0,0,0,0,0,0,0,0,0,0,0,0,0,0,0,0,0,0,0,0,0,0,0,0,0,0,0,0,0,0,0,0,6.184878983153251,0,0,0,0,0,0,0,0,0,0,0,0,0,0,0,0,0,0,0,0,0,0,0,0,0,0,0,0,0,0,0,0,2.677432858249392,0,0,0,0,0,0,0,0,0,0,0,0,2.0662623368759307,0,0,0,0,0,0,0,0,0,0,0,0,0,0,0,0,0,0,0,0,0,0,0,0,0,0,0,0,0,0,0,0,0,0,0,0,0,0,0,0,0,0,0,0,0,0,0,0,0,0,0,0,0,0,0,0,0,0,0,0,0,0,0,0,0,0,0,0,0,0,0,0,0,0,0,0,0,0,0,0,0,0,0,0,0,0,0,0,0,0,0,0,0,0,0,0,0,0,0,0,0,0,0,0,0,0,0,0,0,0
0,0,0,0,0,0,0,0,0,0,0,0,0,6.5708464694683695,211.52531806335242,0,0,0,21.0397657577773,0,0,0,0,0,0,0,0,2.5956816302499974,0,0,0,0,0,0,0,0,8.542955609312598,0,0,0,0,0,0,0,0,0,0,0,0,0,0,0,0,0,3.123847454858252,0,0,0,0,0,0,0,0,0,0,0,0,0,0,0,0,0,0,0,0,0,0,0,0,0,0,0,0,0,0,0,0,0,0,0,0,0,0,0,0,0,0,0,0,0,0,0,0,0,0,0,0,0,0,0,0,0,0,0,0,0,0,0,0,0,0,0,0,0,0,0,0,0,0,0,0,0,0,0,0,0,0,0,0,0,0,0,0,0,0,0,0,0,0,0,0,0,0,0,0,0,0,0,0,0,0,0,0,0,0,0,0,0,0,0,0,0,0,0,0,0,0,0,0,0,0,0,0,0,0,0,0,0,0,0,0,0,0,0,0,0,0,0,0,0,0,0,0,0,0,0,0,0,0,0,0,0,0,0,0,0,0,0,0,0,0,0,0,0,0,0,0,0,0,0,0,0,0,0,0,0,0,0,0,0,0,0,0,0,0,0,0,0,0,0,0,0,0,0,0,0
0,0,0,0,0,0,0,0,0,0,0,0,0,0,0,0,0,0,0,0,0,0,0,143.04844619043493,0,0,0,0,0,0,0,0,0,0,0,52.82409813040891,0,0,0,0,0,0,36.09722339930222,0,0,0,9.311474648378985,0,0,0,0,0,0,0,0,0,0,0,0,0,0,0,0,0,0,0,0,0,0,3.715453748713194,18.93143713709806,0,0,0,0,0,0,0,0,0,0,0,0,16.246220804706514,8.891648553325158,0,0,0,0,0,0,0,0,0,0,0,0,0,0,0,0,0,0,0,0,6.954076645143028,0,0,0,0,0,0,0,0,0,0,0,0,0,0,0,0,0,0,0,4.711980953569066,0,0,0,0,0,0,0,0,0,0,0,0,0,0,2.5609313516978176,0,0,0,0,0,0,0,0,0,0,0,0,0,0,0,0,0,0,0,0,0,0,0,0,0,0,2.2425268314554305,0,0,0,0,0,0,0,0,0,0,0,0,0,0,0,0,0,0,0,0,0,0,0,0,0,0,0,0,0,0,0,0,0,0,0,0,0,0,0,0,0,0,0,0,0,0,0,0,0,0,0,0,0,0,0,0,0,0,0,0,0,0,0,0,0,0,0,0,0,0,0,0,0,0,0,0,0,0,0,0,0,0,0,0,0,0,0,0
0,0,0,0,0,0,0,0,0,0,0,0,0,0,0,0,0,0,0,0,0,0,0,0,0,0,124.71416312562992,0,0,33.01008775423146,0,0,0,0,0,0,0,0,44.23308191590558,0,0,0,0,0,0,27.93248699954392,0,0,0,0,0,0,11.089192721635987,0,0,0,0,0,14.015132286984326,6.882092121666858,0,0,0,0,0,0,0,0,0,0,0,0,0,0,0,0,15.836796936216922,0,4.546718705272907,0,0,0,0,0,0,0,0,0,4.966035535690986,0,9.756322936961528,0,0,0,0,0,0,0,0,0,0,0,0,0,2.1240636747709623,0,0,0,0,0,0,0,0,0,5.631889280255449,0,0,0,0,0,0,0,0,0,0,0,0,0,0,0,0,0,0,0,0,3.555707698609312,0,0,0,0,0,0,0,0,0,0,0,0,0,0,0,0,2.256743515536611,0,0,0,0,0,0,0,0,0,0,0,0,0,0,0,0,0,0,0,0,0,0,0,0,0,0,0,0,0,0,0,0,0,0,0,0,0,0,0,0,0,0,0,0,0,0,0,0,0,0,0,0,0,0,0,0,0,0,0,0,0,0,0,0,0,0,0,0,0,0,0,0,0,0,0,0,0,0,0,0,0,0,0,0,0,0,0,0,0,0,0,0,0,0,0,0,0,0,0,0,0,0,0
0,0,0,0,0,0,0,0,0,0,0,0,0,0,0,0,0,0,0,0,0,0,0,0,0,0,0,0,0,155.3416662636393,0,0,0,0,57.37181754621607,57.412365541437566,29.601708510830257,0,0,0,50.388741984655276,0,0,0,0,0,0,0,0,0,0,0,0,0,0,0,0,0,17.345241096525612,0,0,0,0,0,0,0,0,0,20.8644931921433,0,0,21.073204720253692,0,0,0,0,0,0,0,0,18.775066994592386,0,0,0,0,0,0,6.1724420567458695,0,0,0,0,0,0,0,0,0,0,0,0,0,0,7.43266991092583,0,0,0,7.4590648486489926,4.108177138723995,0,0,0,0,0,0,0,0,0,0,0,0,6.821238711344279,0,0,0,0,0,0,0,0,0,0,0,0,0,0,0,0,0,0,0,0,0,0,0,0,0,0,0,0,0,0,0,0,0,0,0,0,0,0,0,0,0,0,0,0,0,0,0,0,0,0,0,0,0,0,0,0,0,0,0,0,0,0,0,0,0,0,0,0,0,0,0,0,0,0,0,0,0,0,0,0,0,0,0,0,0,0,0,0,0,0,0,0,0,0,0,0,0,0,0,0,0,0,0,0,0,0,0,0,0,0,0,0,0,0,0,0,0,0,0,0,0,0,0,0,0,0,0,0,0,0,0,0,0,0,0
0,0,0,0,0,0,0,0,0,0,0,0,0,0,0,0,0,0,237.578954797834,0,0,0,0,0,0,0,0,0,0,0,0,0,83.52000729724168,0,0,0,7.5015038527179545,0,0,0,0,0,0,0,0,0,0,0,0,0,0,0,0,0,2.769511168747591,0,0,0,0,0,0,0,0,0,31.13093468873086,0,0,0,0,0,0,0,0,0,0,0,0,0,0,0,0,0,0,0,0,0,0,0,0,0,0,0,0,0,0,0,10.49609942248463,0,0,0,0,0,0,0,0,0,0,0,0,0,0,0,0,0,0,0,0,0,0,0,0,0,0,0,0,0,0,0,3.9495396223038055,0,0,0,0,0,0,0,0,0,0,0,0,0,0,0,0,0,0,0,0,0,0,0,0,0,0,0,0,0,0,0,0,0,0,0,0,0,0,0,0,0,0,0,0,0,0,0,0,0,0,0,0,0,0,0,0,0,0,0,0,0,0,0,0,0,0,0,0,0,0,0,0,0,0,0,0,0,0,0,0,0,0,0,0,0,0,0,0,0,0,0,0,0,0,0,0,0,0,0,0,0,0,0,0,0,0,0,0,0,0,0,0,0,0,0,0,0,0,0,0,0,0,0,0,0,0,0
0,0,0,0,0,0,0,0,0,0,0,0,0,0,0,0,0,0,0,0,0,0,0,0,0,0,0,0,0,0,0,0,0,0,0,189.1635779370878,0,67.81016457109368,34.59402417865864,0,0,0,53.97612579026772,0,0,0,0,0,0,0,0,0,0,0,0,0,0,0,0,0,0,0,0,0,0,0,0,0,0,0,26.01885170706915,0,0,0,0,24.955726754282466,0,0,0,0,0,0,0,0,20.381910079398637,0,0,0,0,0,0,0,0,0,0,0,0,0,0,0,0,0,0,0,0,9.873337700473055,0,0,0,0,0,0,9.508207310465187,4.926053175678467,0,0,0,0,0,0,0,0,0,0,0,0,7.342799278956361,0,0,0,0,0,0,0,0,0,0,0,0,0,0,0,0,0,0,0,0,0,0,0,0,0,0,0,0,0,0,0,0,0,0,0,0,0,0,0,0,0,0,0,0,0,0,0,0,0,0,0,0,0,0,0,0,0,0,0,0,0,0,0,0,0,0,0,0,0,0,0,0,0,0,0,0,0,0,0,0,0,0,0,0,0,0,0,0,0,0,0,0,0,0,0,0,0,0,0,0,0,0,0,0,0,0,0,0,0,0,0,0,0,0,0,0,0,0,0,0,0,0,0,0,0,0,0,0,0
0,0,0,0,0,0,0,0,0,0,162.04815604282157,0,0,0,0,0,0,0,0,0,0,0,0,0,0,36.0700345041349,0,0,0,0,0,0,0,58.00998592400057,0,0,0,0,0,0,0,0,0,0,0,0,0,0,0,0,13.486363017992403,0,0,0,0,0,0,0,0,0,0,0,0,0,0,0,21.755221685450223,0,0,0,0,0,0,0,0,4.457266829119388,0,0,0,0,0,0,0,0,0,0,0,0,0,0,0,0,0,0,0,0,0,0,0,8.215287000817542,2.3257312940501724,0,0,0,0,0,0,0,0,0,0,0,0,0,0,0,0,0,0,0,0,0,0,0,0,0,0,0,0,0,0,0,2.605376987756478,0,0,0,0,0,0,0,0,0,0,0,0,0,0,0,0,0,0,0,0,0,0,0,0,0,0,0,0,0,0,0,0,0,0,0,0,0,0,0,0,0,0,0,0,0,0,0,0,0,0,0,0,0,0,0,0,0,0,0,0,0,0,0,0,0,0,0,0,0,0,0,0,0,0,0,0,0,0,0,0,0,0,0,0,0,0,0,0,0,0,0,0,0,0,0,0,0,0,0,0,0,0,0,0,0,0,0,0,0,0,0,0,0,0,0,0,0,0,0,0,0,0,0
0,0,0,0,0,0,0,0,0,0,176.99877643420604,0,0,6.772202185823076,0,0,0,0,0,18.221263184185652,0,0,0,29.096693868331347,0,0,2.5310980737415685,46.49769201760584,0,0,0,0,0,0,0,0,0,0,5.933248975463004,0,0,0,0,0,0,0,11.607799153311854,5.789008053453665,0,0,0,0,0,0,17.883437118293273,0,0,2.8852859219083324,0,0,0,0,0,0,0,0,0,0,0,0,4.814428786548538,0,0,0,0,0,0,0,0,0,0,6.910696180465763,0,0,0,0,0,0,0,0,0,0,0,0,0,0,0,0,0,0,0,0,0,0,0,0,0,0,0,0,0,0,0,0,0,0,0,0,0,0,0,0,0,0,0,0,0,0,0,0,0,0,0,0,0,0,0,0,0,0,0,0,0,0,0,0,0,0,0,0,0,0,0,0,0,0,0,0,0,0,0,0,0,0,0,0,0,0,0,0,0,0,0,0,0,0,0,0,0,0,0,0,0,0,0,0,0,0,0,0,0,0,0,0,0,0,0,0,0,0,0,0,0,0,0,0,0,0,0,0,0,0,0,0,0,0,0,0,0,0,0,0,0,0,0,0,0,0,0,0,0,0,0,0,0,0,0,0,0,0,0,0,0,0,0,0,0,0,0,0,0,0,0,0,0,0
0,0,0,0,0,0,0,0,0,0,0,0,0,0,142.1641229044154,0,0,0,0,14.51420743798137,0,0,0,0,0,0,0,0,0,0,0,0,0,51.27555287529943,0,0,0,0,5.273338849429063,0,0,0,0,0,0,0,0,0,0,0,0,0,0,0,0,0,0,0,0,0,0,0,0,0,0,0,20.051775964889465,0,0,0,0,0,0,0,0,0,0,0,0,0,0,0,0,0,0,0,0,0,0,0,0,0,0,0,0,0,0,0,0,7.3730353443241485,0,0,0,0,0,0,0,0,0,0,0,0,0,0,0,0,0,0,0,0,0,0,0,0,0,0,0,0,0,0,0,0,2.459828653273843,0,0,0,0,0,0,0,0,0,0,0,0,0,0,0,0,0,0,0,0,0,0,0,0,0,0,0,0,0,0,0,0,0,0,0,0,0,0,0,0,0,0,0,0,0,0,0,0,0,0,0,0,0,0,0,0,0,0,0,0,0,0,0,0,0,0,0,0,0,0,0,0,0,0,0,0,0,0,0,0,0,0,0,0,0,0,0,0,0,0,0,0,0,0,0,0,0,0,0,0,0,0,0,0,0,0,0,0,0,0,0,0,0,0,0,0,0,0,0,0,0,0,0
0,0,0,0,0,0,0,0,0,0,0,0,0,5.403270891258304,196.49698421787224,0,0,0,20.415881364452975,0,0,0,0,0,0,0,0,3.078567884892,0,0,0,0,0,0,0,0,7.425369575256208,2.2526393190754623,0,0,0,0,0,0,0,0,0,0,0,0,0,0,0,0,2.105665621950169,0,0,0,0,0,0,0,0,0,0,0,0,0,0,0,0,0,0,0,0,0,0,0,0,0,0,0,0,0,0,0,0,0,0,0,0,0,0,0,0,0,0,0,0,0,0,0,0,0,0,0,0,0,0,0,0,0,0,0,0,0,0,0,0,0,0,0,0,0,0,0,0,0,0,0,0,0,0,0,0,0,0,0,0,0,0,0,0,0,0,0,0,0,0,0,0,0,0,0,0,0,0,0,0,0,0,0,0,0,0,0,0,0,0,0,0,0,0,0,0,0,0,0,0,0,0,0,0,0,0,0,0,0,0,0,0,0,0,0,0,0,0,0,0,0,0,0,0,0,0,0,0,0,0,0,0,0,0,0,0,0,0,0,0,0,0,0,0,0,0,0,0,0,0,0,0,0,0,0,0,0,0,0,0,0,0,0,0,0,0,0,0,0,0,0,0,0,0,0,0,0
0,0,0,0,0,0,0,0,0,0,0,0,0,0,0,0,0,0,0,0,0,0,0,143.47015728068126,0,0,0,0,0,0,0,0,0,0,0,53.53241942531476,0,0,0,0,0,0,36.29898415287266,0,0,0,9.407125730249328,0,0,0,0,0,0,0,0,0,0,0,0,0,0,0,0,0,0,0,0,0,0,3.2674036586559856,19.85388700404686,0,0,0,0,0,0,0,0,0,0,0,0,15.764830406191383,8.62945309043986,0,0,0,0,0,0,0,0,0,0,0,0,0,0,0,0,0,0,0,0,7.122282362602971,0,0,0,0,0,0,0,0,0,0,0,0,0,0,0,0,0,0,0,5.559679940471831,0,0,0,0,0,0,0,0,0,0,0,0,0,0,2.9119582931063452,0,0,0,0,0,0,0,0,0,0,0,0,0,0,0,0,0,0,0,0,0,0,0,0,0,0,2.6680965760965507,0,0,0,0,0,0,0,0,0,0,0,0,0,0,0,0,0,0,0,0,0,0,0,0,0,0,0,0,0,0,0,0,0,0,0,0,0,0,0,0,0,0,0,0,0,0,0,0,0,0,0,0,0,0,0,0,0,0,0,0,0,0,0,0,0,0,0,0,0,0,0,0,0,0,0,0,0,0,0,0,0,0,0,0,0,0,0,0
0,0,0,0,0,0,0,0,0,0,0,0,0,0,0,0,0,0,0,0,0,0,0,0,0,0,127.06914534480616,0,0,33.532519668542406,0,0,0,0,0,0,0,0,44.14474875259445,0,0,0,0,0,0,28.258934067726198,0,0,0,0,0,0,12.304150788525407,0,0,0,0,0,14.28348517022288,7.061844177153421,0,0,0,0,0,0,0,0,0,0,0,0,0,0,0,0,16.650949552275787,0,4.588191618511768,0,0,0,0,0,0,0,0,0,4.815270290627291,0,10.35718324789299,0,0,0,0,0,0,0,0,0,0,0,0,0,0,0,0,0,0,0,0,0,0,0,6.436678774721334,0,0,0,0,0,0,0,0,0,0,0,0,0,0,0,0,0,0,0,0,3.9920717196551885,0,0,0,0,0,0,0,0,0,0,0,0,0,0,0,0,2.2070815088322315,0,0,0,0,0,0,0,0,0,0,0,0,0,0,0,0,0,0,0,0,0,0,0,0,0,0,0,0,0,0,0,0,0,0,0,0,0,0,0,0,0,0,0,0,0,0,0,0,0,0,0,0,0,0,0,0,0,0,0,0,0,0,0,0,0,0,0,0,0,0,0,0,0,0,0,0,0,0,0,0,0,0,0,0,0,0,0,0,0,0,0,0,0,0,0,0,0,0,0,0,0,0,0
0,0,0,0,0,0,0,0,0,0,0,0,0,0,0,0,0,0,0,0,0,0,0,0,0,0,0,0,0,154.37190498227875,0,0,0,0,56.134676074726464,56.84278554543124,29.20519554685013,0,0,0,50.649941430969356,0,0,0,0,0,0,0,0,0,0,0,0,0,0,0,0,0,18.186148254295013,0,0,0,0,0,0,0,0,0,21.370653288068766,0,0,21.015382967054542,0,0,0,0,0,0,0,0,18.060931277645654,0,0,0,0,0,0,6.627936484563342,0,0,0,0,0,0,0,0,0,0,0,0,0,0,7.434497241513718,0,0,0,7.304595358558133,4.208593726192097,0,0,0,0,0,0,0,0,0,0,0,0,6.491381185780506,0,0,0,0,0,0,0,0,0,0,0,0,0,0,0,0,0,0,0,0,0,0,0,0,0,0,0,0,0,0,0,0,0,0,0,0,0,0,0,0,0,0,0,0,0,0,0,0,0,0,0,0,0,0,0,0,0,0,0,0,0,0,0,0,0,0,0,0,0,0,0,0,0,0,0,0,0,0,0,0,0,0,0,0,0,0,0,0,0,0,0,0,0,0,0,0,0,0,0,0,0,0,0,0,0,0,0,0,0,0,0,0,0,0,0,0,0,0,0,0,0,0,0,0,0,0,0,0,0,0,0,0,0,0,0
0,0,0,0,0,0,0,0,0,0,0,0,0,0,0,0,0,0,239.31122853621537,0,0,0,0,0,0,0,0,0,0,0,0,0,84.30992748800476,0,0,0,7.010402749996857,0,0,0,0,0,0,0,0,0,0,0,0,0,0,0,0,0,2.60546489796586,0,0,0,0,0,0,0,0,0,30.97055277525983,0,0,0,0,0,0,0,0,0,0,0,0,0,0,0,0,0,0,0,0,0,0,0,0,0,0,0,0,0,0,0,10.468176883844697,0,0,0,0,0,0,0,0,0,0,0,0,0,0,0,0,0,0,0,0,0,0,0,0,0,0,0,0,0,0,0,4.311709366984145,0,0,0,0,0,0,0,0,0,0,0,0,0,0,0,0,0,0,0,0,0,0,0,0,0,0,0,0,0,0,0,0,0,0,0,0,0,0,0,0,0,0,0,0,0,0,0,0,0,0,0,0,0,0,0,0,0,0,0,0,0,0,0,0,0,0,0,0,0,0,0,0,0,0,0,0,0,0,0,0,0,0,0,0,0,0,0,0,0,0,0,0,0,0,0,0,0,0,0,0,0,0,0,0,0,0,0,0,0,0,0,0,0,0,0,0,0,0,0,0,0,0,0,0,0,0,0
0,0,0,0,0,0,0,0,0,0,0,0,0,0,0,0,0,0,0,0,0,0,0,0,0,0,0,0,0,0,0,0,0,0,0,194.79797668780256,0,68.92157344024714,35.443943703225,0,0,0,56.025995740608174,0,0,0,0,0,0,0,0,0,0,0,0,0,0,0,0,0,0,0,0,0,0,0,0,0,0,0,25.998118395860764,0,0,0,0,25.828145536402083,0,0,0,0,0,0,0,0,20.098063659013725,0,0,0,0,0,0,0,0,0,0,0,0,0,0,0,0,0,0,0,0,9.581738849940306,0,0,0,0,0,0,9.409536713086675,5.257480847990793,0,0,0,0,0,0,0,0,0,0,0,0,7.351040354009868,0,0,0,0,0,0,0,0,0,0,0,0,0,0,0,0,0,0,0,0,0,0,0,0,0,0,0,0,0,0,0,0,0,0,0,0,0,0,0,0,0,0,0,0,0,0,0,0,0,0,0,0,0,0,0,0,0,0,0,0,0,0,0,0,0,0,0,0,0,0,0,0,0,0,0,0,0,0,0,0,0,0,0,0,0,0,0,0,0,0,0,0,0,0,0,0,0,0,0,0,0,0,0,0,0,0,0,0,0,0,0,0,0,0,0,0,0,0,0,0,0,0,0,0,0,0,0,0,0
0,0,0,0,0,0,0,0,0,0,163.10274195381538,0,0,0,0,0,0,0,0,0,0,0,0,0,0,37.00274258004369,0,0,0,0,0,0,0,58.95307150616484,0,0,0,0,0,0,0,0,0,0,0,0,0,0,0,0,13.939792810344281,0,0,0,0,0,0,0,0,0,0,0,0,0,0,0,20.91412700599171,0,0,0,0,0,0,0,0,5.022398800946293,0,0,0,0,0,0,0,0,0,0,0,0,0,0,0,0,0,0,0,0,0,0,0,8.405840387150636,0,0,0,0,0,0,0,0,0,0,0,0,0,0,0,0,0,0,0,0,0,0,0,0,0,0,0,0,0,0,0,0,2.97573889981746,0,0,0,0,0,0,0,0,0,0,0,0,0,0,0,0,0,0,0,0,0,0,0,0,0,0,0,0,0,0,0,0,0,0,0,0,0,0,0,0,0,0,0,0,0,0,0,0,0,0,0,0,0,0,0,0,0,0,0,0,0,0,0,0,0,0,0,0,0,0,0,0,0,0,0,0,0,0,0,0,0,0,0,0,0,0,0,0,0,0,0,0,0,0,0,0,0,0,0,0,0,0,0,0,0,0,0,0,0,0,0,0,0,0,0,0,0,0,0,0,0,0,0
0,0,0,0,0,0,0,0,0,0,169.0544070941196,0,0,5.92069964132679,0,0,0,0,0,16.97306525595073,0,0,0,26.51111641347623,0,0,2.5897134786602436,45.22820960481534,0,0,0,0,0,0,0,0,0,0,5.901876771042004,0,0,0,0,0,0,0,12.036620483829179,6.218946201097621,0,0,0,0,0,0,16.070473883117696,0,0,2.933473547722322,0,0,0,0,0,0,0,0,0,0,0,0,4.095799206106248,0,0,0,0,0,0,0,0,0,0,6.453070243740486,0,0,0,0,0,0,0,0,0,0,0,0,0,0,0,0,0,0,0,0,0,0,0,0,0,0,0,0,0,0,0,0,0,0,0,0,0,0,0,0,0,0,0,0,0,0,0,0,0,0,0,0,0,0,0,0,0,0,0,0,0,0,0,0,0,0,0,0,0,0,0,0,0,0,0,0,0,0,0,0,0,0,0,0,0,0,0,0,0,0,0,0,0,0,0,0,0,0,0,0,0,0,0,0,0,0,0,0,0,0,0,0,0,0,0,0,0,0,0,0,0,0,0,0,0,0,0,0,0,0,0,0,0,0,0,0,0,0,0,0,0,0,0,0,0,0,0,0,0,0,0,0,0,0,0,0,0,0,0,0,0,0,0,0,0,0,0,0,0,0,0,0,0,0
0,0,0,0,0,0,0,0,0,0,0,0,0,0,146.36860412902814,0,0,0,0,14.542391133573002,0,0,0,0,0,0,0,0,2.82885626198957,0,0,0,0,52.42303510498681,0,0,0,0,5.657613984066515,0,0,0,0,0,0,0,0,0,0,0,0,0,0,0,0,0,0,2.8271329771860745,0,0,0,0,0,0,0,0,18.9847237212712,0,0,0,0,0,0,0,0,0,0,0,0,0,0,0,0,0,0,0,0,0,0,0,0,0,0,0,0,0,0,0,0,7.633573076094011,0,0,0,0,0,0,0,0,0,0,0,0,0,0,0,0,0,0,0,0,0,0,0,0,0,0,0,0,0,0,0,0,3.384317396105235,0,0,0,0,0,0,0,0,0,0,0,0,0,0,0,0,0,0,0,0,0,0,0,0,0,0,0,0,0,0,0,0,0,0,0,0,0,0,0,0,0,0,0,0,0,0,0,0,0,0,0,0,0,0,0,0,0,0,0,0,0,0,0,0,0,0,0,0,0,0,0,0,0,0,0,0,0,0,0,0,0,0,0,0,0,0,0,0,0,0,0,0,0,0,0,0,0,0,0,0,0,0,0,0,0,0,0,0,0,0,0,0,0,0,0,0,0,0,0,0,0,0,0
0,0,0,0,0,0,0,0,0,0,0,0,0,5.863794706502977,216.7383447018568,0,0,0,21.690093715692807,0,0,0,0,0,0,0,0,3.431852676433214,0,0,0,0,0,0,0,0,7.131281132217877,0,0,0,0,0,0,0,0,0,0,0,0,0,0,0,0,0,3.5562297518776007,0,0,0,0,0,0,0,0,0,0,0,0,0,0,0,0,0,0,0,0,0,0,0,0,0,0,0,0,0,0,0,0,0,0,0,0,0,0,0,0,0,0,0,0,0,0,0,0,0,0,0,0,0,0,0,0,0,0,0,0,0,0,0,0,0,0,0,0,0,0,0,0,0,0,0,0,0,0,0,0,0,0,0,0,0,0,0,0,0,0,0,0,0,0,0,0,0,0,0,0,0,0,0,0,0,0,0,0,0,0,0,0,0,0,0,0,0,0,0,0,0,0,0,0,0,0,0,0,0,0,0,0,0,0,0,0,0,0,0,0,0,0,0,0,0,0,0,0,0,0,0,0,0,0,0,0,0,0,0,0,0,0,0,0,0,0,0,0,0,0,0,0,0,0,0,0,0,0,0,0,0,0,0,0,0,0,0,0,0,0,0,0,0,0,0,0,0,0,0,0,0
0,0,0,0,0,0,0,0,0,0,0,0,0,0,0,0,0,0,0,0,0,0,0,142.76770749116048,0,0,0,0,0,0,0,0,0,0,0,52.83428561834639,0,0,0,0,0,0,35.98401461160391,0,0,0,9.740136312997077,0,0,0,0,0,0,0,0,0,0,0,0,0,0,0,0,0,0,0,0,0,0,3.802476434781962,19.168692034224982,0,0,0,0,0,0,0,0,0,0,0,0,16.211910946167933,8.869872330426087,0,0,0,0,0,0,0,0,0,0,0,0,0,0,0,0,0,0,0,0,7.016898993133803,0,0,0,0,0,0,0,0,0,0,0,0,0,0,0,0,0,0,0,4.6697615797265914,0,0,0,0,0,0,0,0,0,0,0,0,0,0,3.054961524661969,0,0,0,0,0,0,0,0,0,0,0,0,0,0,0,0,0,0,0,0,0,0,0,0,0,0,2.407181087804645,0,0,0,0,0,0,0,0,0,0,0,0,0,0,0,0,0,0,0,0,0,0,0,0,0,0,0,0,0,0,0,0,0,0,0,0,0,0,0,0,0,0,0,0,0,0,0,0,0,0,0,0,0,0,0,0,0,0,0,0,0,0,0,0,0,0,0,0,0,0,0,0,0,0,0,0,0,0,0,0,0,0,0,0,0,0,0,0
0,0,0,0,0,0,0,0,0,0,0,0,0,0,0,0,0,0,0,0,0,0,0,0,0,0,129.11225245449538,0,0,34.48837310046436,0,0,0,0,0,0,0,0,45.26923888853418,0,0,0,0,0,0,28.469953238261297,0,0,0,0,0,0,10.87758584282081,0,0,0,0,0,14.311862082893148,7.936110466947463,0,0,0,0,0,0,0,0,0,0,0,0,0,0,0,0,15.947796498555851,0,4.055697158969724,0,0,0,0,0,0,0,0,0,4.8446258023274895,0,9.885641942249567,0,0,0,0,0,0,0,0,0,0,0,0,0,0,0,0,0,0,0,0,0,0,0,6.128930698040152,0,0,2.2410580329005594,0,0,0,0,0,0,0,0,0,0,0,0,0,0,0,0,0,3.339885780928499,0,0,0,0,0,0,0,0,0,0,0,0,0,0,0,0,2.19618351318801,0,0,0,0,0,0,0,0,0,0,0,0,0,0,0,0,0,0,0,0,0,0,0,0,0,0,0,0,0,0,0,0,0,0,0,0,0,0,0,0,0,0,0,0,0,0,0,0,0,0,0,0,0,0,0,0,0,0,0,0,0,0,0,0,0,0,0,0,0,0,0,0,0,0,0,0,0,0,0,0,0,0,0,0,0,0,0,0,0,0,0,0,0,0,0,0,0,0,0,0,0,0,0
0,0,0,0,0,0,0,0,0,0,0,0,0,0,0,0,0,0,0,0,0,0,0,0,0,0,0,0,0,150.0253710757259,0,0,0,0,54.65759702620919,55.440732002281074,27.948562664927028,0,0,0,48.715856906066236,0,0,0,0,0,0,0,0,0,0,0,0,0,0,0,0,0,16.63958526895549,0,0,0,0,0,0,0,0,0,20.42781808830042,0,0,20.181287481755284,0,0,0,0,0,0,0,0,18.37807697480766,0,0,0,0,0,0,6.436694033384529,0,0,0,0,0,0,0,0,0,0,0,0,0,0,7.4610717507394115,0,0,0,7.3222285313704205,3.891653178404976,0,0,0,0,0,0,0,0,0,0,0,0,6.82263454754751,0,0,0,0,0,0,0,0,0,0,0,0,0,0,0,0,0,0,0,0,0,0,0,0,0,0,0,0,0,0,0,0,0,0,0,0,0,0,0,0,0,0,0,0,0,0,0,0,0,0,0,0,0,0,0,0,0,0,0,0,0,0,0,0,0,0,0,0,0,0,0,0,0,0,0,0,0,0,0,0,0,0,0,0,0,0,0,0,0,0,0,0,0,0,0,0,0,0,0,0,0,0,0,0,0,0,0,0,0,0,0,0,0,0,0,0,0,0,0,0,0,0,0,0,0,0,0,0,0,0,0,0,0,0,0
0,0,0,0,0,0,0,0,0,0,0,0,0,0,0,0,0,0,231.37842359517487,0,0,0,0,0,0,0,0,0,0,0,0,0,81.76754308467392,0,0,0,8.146916702895473,0,0,0,0,0,0,0,0,0,0,0,0,0,0,0,0,0,2.626728126429891,0,0,0,0,0,0,0,0,0,30.699499368738213,0,0,0,0,0,0,0,0,0,0,0,0,0,0,0,0,0,0,0,0,0,0,0,0,0,0,0,0,0,0,0,11.61788464149836,0,0,0,0,0,0,0,0,0,0,0,0,0,0,0,0,0,0,0,0,0,0,0,0,0,0,0,0,0,0,0,4.1458913401621045,0,0,0,0,0,0,0,0,0,0,0,0,0,0,0,0,0,0,0,0,0,0,0,0,0,0,0,0,0,0,0,0,0,0,0,0,0,0,0,0,0,0,0,0,0,0,0,0,0,0,0,0,0,0,0,0,0,0,0,0,0,0,0,0,0,0,0,0,0,0,0,0,0,0,0,0,0,0,0,0,0,0,0,0,0,0,0,0,0,0,0,0,0,0,0,0,0,0,0,0,0,0,0,0,0,0,0,0,0,0,0,0,0,0,0,0,0,0,0,0,0,0,0,0,0,0,0
0,0,0,0,0,0,0,0,0,0,0,0,0,0,0,0,0,0,0,0,0,0,0,0,0,0,0,0,0,0,0,0,0,0,0,195.02616505035843,0,69.46482350173972,36.37615722284747,0,0,0,56.06877341661696,0,0,0,0,0,0,0,0,0,0,0,0,0,0,0,0,0,0,0,0,0,0,0,0,0,0,0,26.156159723373502,0,0,0,0,25.524406423180277,0,0,0,0,0,0,0,0,20.66155345252824,0,0,0,0,0,0,0,0,0,0,0,0,0,0,0,0,0,0,0,0,9.300118064404643,0,0,0,0,0,0,9.347043557265723,5.098955211081206,0,0,0,0,0,0,0,0,0,0,0,0,7.9619883376139695,0,0,0,0,0,0,0,0,0,0,0,0,0,0,0,0,0,0,0,0,0,0,0,0,0,0,0,0,0,0,0,0,0,0,0,0,0,0,0,0,0,0,0,0,0,0,0,0,0,0,0,0,0,0,0,0,0,0,0,0,0,0,0,0,0,0,0,0,0,0,0,0,0,0,0,0,0,0,0,0,0,0,0,0,0,0,0,0,0,0,0,0,0,0,0,0,0,0,0,0,0,0,0,0,0,0,0,0,0,0,0,0,0,0,0,0,0,0,0,0,0,0,0,0,0,0,0,0,0
0,0,0,0,0,0,0,0,0,0,158.26986209769086,0,0,0,0,0,0,0,0,0,0,0,0,0,0,35.192585010598016,0,0,0,0,0,0,0,57.52200541402336,0,0,0,0,0,0,0,0,0,0,0,0,0,0,0,0,12.827416892609047,0,0,0,0,0,0,0,0,0,0,0,0,0,0,0,21.05678020322604,0,0,0,0,0,0,0,0,4.522910533559851,0,0,0,0,0,0,0,0,0,0,0,0,0,0,0,0,0,0,0,0,0,0,0,7.278884865868338,0,0,0,0,0,0,0,0,0,0,0,0,0,0,0,0,0,0,0,0,0,0,0,0,0,0,0,0,0,0,0,0,3.0806776507214524,0,0,0,0,0,0,0,0,0,0,0,0,0,0,0,0,0,0,0,0,0,0,0,0,0,0,0,0,0,0,0,0,0,0,0,0,0,0,0,0,0,0,0,0,0,0,0,0,0,0,0,0,0,0,0,0,0,0,0,0,0,0,0,0,0,0,0,0,0,0,0,0,0,0,0,0,0,0,0,0,0,0,0,0,0,0,0,0,0,0,0,0,0,0,0,0,0,0,0,0,0,0,0,0,0,0,0,0,0,0,0,0,0,0,0,0,0,0,0,0,0,0,0
0,0,0,0,0,0,0,0,0,0,172.45190041773895,0,0,5.972219149979595,0,0,0,0,0,17.776198857287305,0,0,0,26.67925254443972,0,0,2.794803615311845,47.079046526286575,0,0,0,0,0,0,0,0,0,0,7.021786974886522,0,0,0,0,0,0,0,12.092525732786907,6.7136625553133324,0,0,0,0,0,0,17.247271943541044,0,0,2.5522723664492,0,0,0,0,0,0,0,0,0,0,0,0,3.7481589197192497,0,0,0,0,0,0,0,0,0,0,7.048861675082511,0,0,0,0,0,0,0,0,0,0,0,0,0,0,0,0,0,0,0,0,0,0,0,0,0,0,0,0,0,0,0,0,0,0,0,0,0,0,0,0,0,0,0,0,0,0,0,0,0,0,0,0,0,0,0,0,0,0,0,0,0,0,0,0,0,0,0,0,0,0,0,0,0,0,0,0,0,0,0,0,0,0,0,0,0,0,0,0,0,0,0,0,0,0,0,0,0,0,0,0,0,0,0,0,0,0,0,0,0,0,0,0,0,0,0,0,0,0,0,0,0,0,0,0,0,0,0,0,0,0,0,0,0,0,0,0,0,0,0,0,0,0,0,0,0,0,0,0,0,0,0,0,0,0,0,0,0,0,0,0,0,0,0,0,0,0,0,0,0,0,0,0,0,0
0,0,1.9318743380582475,0,0,0,0,0,0,0,0,0,0,0,138.94144398959125,0,0,0,0,13.732657627189457,0,0,0,0,0,0,0,0,2.4307672792369113,0,0,0,0,49.78389162160258,0,0,0,0,5.497114973008262,0,0,0,0,0,0,0,0,0,0,0,0,0,0,0,0,0,0,2.1057751100462494,0,0,0,0,0,0,0,0,18.435481535905712,0,0,0,0,0,0,0,0,0,0,0,0,0,0,0,0,0,0,0,0,0,0,0,0,0,0,0,0,0,0,0,0,6.753726347900111,0,0,0,0,0,0,0,0,0,0,0,0,0,0,0,0,0,0,0,0,0,0,0,0,0,0,0,0,0,0,0,0,0,0,0,0,0,0,0,0,0,0,0,0,0,0,0,0,0,0,0,0,0,0,0,0,0,0,0,0,0,0,0,0,0,0,0,0,0,0,0,0,0,0,0,0,0,0,0,0,0,0,0,0,0,0,0,0,0,0,0,0,0,0,0,0,0,0,0,0,0,0,0,0,0,0,0,0,0,0,0,0,0,0,0,0,0,0,0,0,0,0,0,0,0,0,0,0,0,0,0,0,0,0,0,0,0,0,0,0,0,0,0,0,0,0,0,0,0,0,0,0,0,0,0,0
0,0,0,0,0,0,0,0,0,0,0,0,0,5.349552240692654,214.18805861641027,0,0,0,22.493894988941314,0,0,0,0,0,0,0,0,3.0008679901360287,0,0,0,0,0,0,0,0,8.220988381208233,0,0,0,0,0,0,0,0,0,0,0,0,0,0,0,0,0,2.9680106229533667,0,0,0,0,0,0,0,0,0,0,0,0,0,0,0,0,0,0,0,0,0,0,0,0,0,0,0,0,0,0,0,0,0,0,0,0,0,0,0,2.4290007683825054,0,0,0,0,0,0,0,0,0,0,0,0,0,0,0,0,0,0,0,0,0,0,0,0,0,0,0,0,0,0,0,0,0,0,0,0,0,0,0,0,0,0,0,0,0,0,0,0,0,0,0,0,0,0,0,0,0,0,0,0,0,0,0,0,0,0,0,0,0,0,0,0,0,0,0,0,0,0,0,0,0,0,0,0,0,0,0,0,0,0,0,0,0,0,0,0,0,0,0,0,0,0,0,0,0,0,0,0,0,0,0,0,0,0,0,0,0,0,0,0,0,0,0,0,0,0,0,0,0,0,0,0,0,0,0,0,0,0,0,0,0,0,0,0,0,0,0,0,0,0,0,0,0,0,0,0,0,0,0,0,0
0,0,0,0,0,0,0,0,0,0,0,0,0,0,0,0,0,0,0,0,0,0,0,147.96643972507005,0,0,0,0,0,0,0,0,0,0,0,53.911016302941334,0,0,0,0,0,0,36.4408390584145,0,0,0,9.853802039685636,0,0,0,0,0,0,0,0,0,0,0,0,0,0,0,0,0,0,0,0,0,0,2.937444559433323,19.64270203877654,0,0,0,0,0,0,0,0,0,0,0,0,16.188732497470077,8.413403969841907,0,0,0,0,0,0,0,0,0,0,0,0,0,0,0,0,0,0,0,0,7.806885969941493,0,0,0,0,0,0,0,0,0,0,0,0,0,0,0,0,0,0,0,4.6958110178476105,0,0,0,0,0,0,0,0,0,0,0,0,0,0,2.922317885752771,0,0,0,0,0,0,0,0,0,0,0,0,0,0,0,0,0,0,0,0,0,0,0,0,0,0,2.1827970483501185,0,0,0,0,0,0,0,0,0,0,0,0,0,0,0,0,0,0,0,0,0,0,0,0,0,0,0,0,0,0,0,0,0,0,0,0,0,0,0,0,0,0,0,0,0,0,0,0,0,0,0,0,0,0,0,0,0,0,0,0,0,0,0,0,0,0,0,0,0,0,0,0,0,0,0,0,0,0,0,0,0,0,0,0,0,0,0,0
